<?xml version="1.0" encoding="utf-8"?>
<!-- Generator: Adobe Illustrator 24.0.1, SVG Export Plug-In . SVG Version: 6.00 Build 0)  -->
<svg version="1.1" id="Слой_1" xmlns="http://www.w3.org/2000/svg" xmlns:xlink="http://www.w3.org/1999/xlink" x="0px" y="0px"
	 viewBox="0 0 434 423" style="enable-background:new 0 0 434 423; height:35px; width:35px;" xml:space="preserve">
<style type="text/css">
	.st0{stroke:#1D1D1B;stroke-width:5;stroke-miterlimit:10;}
	.st1{fill:none;stroke:#1D1D1B;stroke-width:15;stroke-miterlimit:10;}
</style>
<g id="Capa_1">
	<g>
		<path class="st0" d="M192.5,140.1c11.8,0,21.4-9.6,21.4-21.4s-9.6-21.4-21.4-21.4c-11.8,0-21.4,9.6-21.4,21.4
			S180.7,140.1,192.5,140.1z M192.5,100.9c9.8,0,17.7,8,17.7,17.7s-8,17.7-17.7,17.7c-9.8,0-17.7-8-17.7-17.7
			S182.7,100.9,192.5,100.9z"/>
		<path class="st0" d="M300.9,202.8l-22.8-46c-0.7-1.5-1.6-3-2.7-4.3c0.5-1.5,0.6-3.1,0.4-4.6c-0.8-6-6.3-10.2-12.3-9.5l-6.6,0.8
			c8.7-2.7,15.1-10.9,15.1-20.5c0-11.8-9.6-21.4-21.4-21.4c-11.8,0-21.4,9.6-21.4,21.4c0,11.3,8.9,20.7,20,21.4l-41.7,4.9
			c-5-2.6-10.5-4.1-15.1-4.1c-8,0-19,4.6-24.8,11.5l-21,22.4l-16.3-15.3c-2.1-2-4.8-3-7.7-2.9c-2.9,0.1-5.5,1.3-7.5,3.4
			c-2,2.1-3,4.8-2.9,7.7s1.3,5.5,3.4,7.5l24.3,22.6c2.1,1.9,4.7,2.9,7.3,2.9c2.9,0,5.7-1.1,7.8-3.4l8.9-9.5v105.9
			c0,7.2,5.9,13.1,13.1,13.1c7.2,0,13.1-5.9,13.1-13.1v-55.3c1.7,0.2,3.2,0.2,4.8,0v55.3c0,7.2,5.9,13.1,13.1,13.1
			c7.2,0,13.1-5.9,13.1-13.1V165.9l1-0.1v127.9c0,7.2,5.9,13.1,13.1,13.1c7.2,0,13.1-5.9,13.1-13.1v-55.3c1.7,0.2,3.2,0.2,4.8,0
			v55.3c0,7.2,5.9,13.1,13.1,13.1s13.1-5.9,13.1-13.1v-85.5l2.1,4.2c1.3,2.6,3.5,4.6,6.3,5.5c1.1,0.4,2.3,0.6,3.5,0.6
			c1.7,0,3.3-0.4,4.9-1.1C301.4,214.8,303.6,208.2,300.9,202.8z M232.9,118.7c0-9.8,8-17.7,17.7-17.7c9.8,0,17.7,8,17.7,17.7
			s-8,17.7-17.7,17.7S232.9,128.4,232.9,118.7z M264,142c4-0.5,7.6,2.3,8.1,6.3c0,0.3,0.1,0.6,0.1,0.9c-3.5-3-7.9-5.3-12.3-6.7
			L264,142z M152.3,194.8c-2.7,2.8-7.1,3-9.9,0.3l-24.3-22.6c-1.4-1.3-2.1-3-2.2-4.9s0.6-3.7,1.9-5c1.3-1.4,3-2.1,4.9-2.2
			c1.9-0.1,3.7,0.6,5,1.9l17.7,16.5c0.7,0.7,1.9,0.7,2.6-0.1l15.8-17c0,0.1,0,0.2,0,0.3v20.5L152.3,194.8z M208,303.1
			c-5.2,0-9.4-4.2-9.4-9.4v-57.5c0-0.5-0.2-1.1-0.7-1.4c-0.3-0.3-0.8-0.4-1.2-0.4c-0.1,0-0.2,0-0.3,0c-1.4,0.2-2.7,0.4-3.9,0.4
			s-2.5-0.1-3.9-0.4c-0.5-0.1-1.1,0.1-1.5,0.4c-0.4,0.4-0.7,0.9-0.7,1.4v57.5c0,5.2-4.2,9.4-9.4,9.4c-0.3,0-0.5,0-0.8,0v-58.5
			c0-1-0.8-1.8-1.8-1.8s-1.8,0.8-1.8,1.8V302c-2.9-1.6-4.9-4.7-4.9-8.2V162c0-9.4,15.3-17.4,24.9-17.4c9.6,0,24.9,8,24.9,17.4v131.8
			C217.4,298.9,213.2,303.1,208,303.1z M221.1,162.2V162c0-5.4-3.5-10.2-8.3-13.8l21.7-2.6c-6.8,3.8-12.3,9.6-12.3,16.4v0.1
			L221.1,162.2z M266.1,303.1c-5.2,0-9.4-4.2-9.4-9.4v-57.5c0-0.5-0.2-1.1-0.7-1.4c-0.3-0.3-0.8-0.4-1.2-0.4c-0.1,0-0.2,0-0.3,0
			c-1.4,0.2-2.7,0.4-3.9,0.4s-2.5-0.1-3.9-0.4c-0.5-0.1-1.1,0.1-1.5,0.4c-0.4,0.4-0.7,0.9-0.7,1.4v57.5c0,5.2-4.2,9.4-9.4,9.4
			s-9.4-4.2-9.4-9.4V162c0-9.4,15.3-17.4,24.9-17.4c9.6,0,24.9,8,24.9,17.4v131.8C275.5,298.9,271.3,303.1,266.1,303.1z
			 M294.3,214.1c-1.7,0.9-3.7,1-5.6,0.4c-1.8-0.6-3.3-1.9-4.2-3.7l-5.4-10.8v-32.9l18.4,37.2C299.4,208,297.9,212.4,294.3,214.1z"/>
		<path class="st0" d="M174.4,209.5c-1,0-1.8,0.8-1.8,1.8v22.1c0,1,0.8,1.8,1.8,1.8s1.8-0.8,1.8-1.8v-22.1
			C176.2,210.4,175.4,209.5,174.4,209.5z"/>
		<path class="st0" d="M270.7,161.3c-1,0-1.8,0.8-1.8,1.8v56.6c0,1,0.8,1.8,1.8,1.8s1.8-0.8,1.8-1.8v-56.6
			C272.6,162.2,271.7,161.3,270.7,161.3z"/>
		<path class="st0" d="M233,240.1c-1,0-1.8,0.8-1.8,1.8v41.7c0,1,0.8,1.8,1.8,1.8s1.8-0.8,1.8-1.8V242
			C234.8,241,234,240.1,233,240.1z"/>
	</g>
	<circle class="st1" cx="215.2" cy="211.6" r="192.4"/>
</g>
<g id="Слой_2_1_">
</g>
</svg>
