<?xml version="1.0" encoding="utf-8"?>
<!-- Generator: Adobe Illustrator 24.0.1, SVG Export Plug-In . SVG Version: 6.00 Build 0)  -->
<svg version="1.1" id="Слой_1" xmlns="http://www.w3.org/2000/svg" xmlns:xlink="http://www.w3.org/1999/xlink" x="0px" y="0px"
	 viewBox="0 0 444 441.6" style="enable-background:new 0 0 444 441.6; height:35px; width:35px;" xml:space="preserve">
<style type="text/css">
	.st0{fill:#F49913;}
	.st1{fill:#010002;stroke:#000000;stroke-width:2;stroke-miterlimit:10;}
</style>
<g id="Capa_1">
	<circle class="st0" cx="216.7" cy="223.8" r="194.6"/>
	<g>
		<path class="st1" d="M288.2,300c-3.3-7.2-10.6-11.8-18.5-11.8c-3,0-5.8,0.6-8.5,1.9c-4.9,2.3-8.7,6.3-10.6,11.5
			c-1.9,5.1-1.7,10.6,0.6,15.6c3.3,7.2,10.6,11.8,18.5,11.8c3,0,5.8-0.6,8.5-1.9c4.9-2.3,8.7-6.4,10.6-11.5
			C290.8,310.5,290.5,305,288.2,300z M285.4,314.3c-1.5,4.2-4.6,7.5-8.7,9.4c-2.2,1-4.6,1.5-7,1.5c-6.5,0-12.4-3.8-15.2-9.7
			c-1.9-4-2.1-8.6-0.5-12.8c1.5-4.2,4.6-7.5,8.6-9.4c2.2-1,4.6-1.6,7-1.6c6.5,0,12.4,3.8,15.2,9.7
			C286.8,305.6,287,310.1,285.4,314.3z"/>
		<path class="st1" d="M234.1,157.1c2.5,1.1,5.2,1.7,8,1.7c7.8,0,14.9-4.6,18-11.7c4.4-9.9-0.1-21.6-10-26c-2.5-1.1-5.2-1.7-8-1.7
			c-7.8,0-14.9,4.6-18,11.7C219.6,141,224.1,152.7,234.1,157.1z M227.4,132.6c2.6-5.8,8.3-9.5,14.7-9.5c2.2,0,4.4,0.5,6.5,1.4
			c8.1,3.6,11.7,13.1,8.2,21.2c-2.6,5.8-8.3,9.5-14.7,9.5c-2.2,0-4.4-0.5-6.5-1.4C227.5,150.1,223.8,140.6,227.4,132.6z"/>
		<path class="st1" d="M254.4,230.2c-1.6,4-1.4,7.8,0.5,10.6c1.5,2.1,3.8,3.4,6.3,3.4c3.9,0,7.4-2.8,9.2-7.6
			c13.3-34.5,5.1-57.9-24.8-71.5c-1.1-0.8-2.1-1.5-3.3-2.2c-7-4.1-13.6-6.2-19.8-6.2c-1,0-1.9,0.1-3,0.2l-3.7,1.1
			c-6.1,2.6-24.3,4.1-54,4.4c-7.3,0.1-11,5-11,9.8s3.8,9.6,11,9.6c9.5-0.1,19.2-0.6,28.5-1.2l4.5-0.3l-27.3,53.9l-19.3,38.7
			c-1.3,2.9-5.1,11.6,1.6,15.4c0.1,0.1,0.1,0.1,0.2,0.2l-0.2,0.4l0.3-0.3c1.1,0.9,3.3,1.5,4.9,1.5c2.8,0,6.8-1.2,10.2-7.1l26.2-40.2
			c0,0,0.7-1.2,1.8-1.2c0.3,0,0.6,0.1,1,0.2c0.6,0.2,0.9,0.5,1,0.9c0.2,0.6-0.1,1.4-0.1,1.4l-27.7,63.8c-3.3,7.5-2,13.6,3.4,16
			c1.6,0.7,3.2,1.1,4.7,1.1c2.7,0,6.5-1.2,9.1-7c0.5-1,50.8-95,64-123.8C258.4,203.1,260.3,215,254.4,230.2z M249.4,189.6l-1.9-1.6
			l-1,2.2c-10.3,23.4-55.7,108.6-64.7,125.5l-0.3,0.5c-2.1,4.6-4.9,5.9-9,4.1c-1.3-0.6-2.2-1.5-2.7-2.7c-1.2-3,0.5-7.3,1.1-8.5
			l27.7-63.7c0-0.1,1-2.1,0.2-4.2c-0.5-1.3-1.5-2.3-3-3c-0.8-0.4-1.7-0.5-2.5-0.5c-3.3,0-5,2.9-5,2.9l-26.2,40.2
			c-2,3.5-4.5,5.4-7.1,5.4c-1.1,0-2-0.4-2.4-0.6l0.1-0.2l-0.6-0.3c-2.1-0.9-4-3-0.5-10.9l19.3-38.6l30.2-59.5l-3.2,0.2
			c-2.6,0.1-5.2,0.3-7.7,0.4c-9.3,0.5-18.9,1.1-28.5,1.2c-5,0-7.2-3.1-7.2-5.9c0-2.9,2.3-6.1,7.4-6.1c30.6-0.3,48.6-1.8,55.2-4.6
			l3.1-1c0.8-0.1,1.5-0.1,2.3-0.1c5.5,0,11.5,1.9,17.9,5.7c1.1,0.6,2.1,1.3,3.1,2.1l0.3,0.2c28.1,12.7,35.6,34.6,23.2,67
			c-1.3,3.3-3.4,5.2-5.8,5.2c-1.3,0-2.5-0.7-3.3-1.8c-1.2-1.8-1.2-4.3-0.1-7.2C264.6,214,261.7,199.9,249.4,189.6z"/>
	</g>
</g>
<g id="Слой_2_1_">
</g>
</svg>
