<?xml version="1.0" encoding="utf-8"?>
<!-- Generator: Adobe Illustrator 24.0.1, SVG Export Plug-In . SVG Version: 6.00 Build 0)  -->
<svg version="1.1" id="Слой_1" xmlns="http://www.w3.org/2000/svg" xmlns:xlink="http://www.w3.org/1999/xlink" x="0px" y="0px"
	 viewBox="0 0 552 552" style="enable-background:new 0 0 552 552;" xml:space="preserve">
<style type="text/css">
	.st0{stroke:#000000;stroke-width:8;stroke-miterlimit:10;}
</style>
<path class="st0" d="M243.9,444h64v16h-64V444z"/>
<path class="st0" d="M267.9,420h16v64h-16V420z"/>
<path class="st0" d="M475.9,444h16v16h-16V444z"/>
<path class="st0" d="M411.9,444h16v16h-16V444z"/>
<path class="st0" d="M443.9,412h16v16h-16V412z"/>
<path class="st0" d="M443.9,476h16v16h-16V476z"/>
<path class="st0" d="M483.9,308.3h16V356h-16V308.3z"/>
<path class="st0" d="M451.9,324.3h16V356h-16V324.3z"/>
<path class="st0" d="M419.9,340.3h16V356h-16V340.3z"/>
<path class="st0" d="M347.9,444h32v16h-32V444z"/>
<path class="st0" d="M451.9,372h-96v-12c0-19.9-16.1-36-36-36h-24c-11,0-20-9-20-20s9-20,20-20h174.2c17.3,0,33.7-7.9,44.3-21.5
	c10.5-13.1,14.3-30.3,10.3-46.6C493.4,86.1,367.6,2.2,235.7,23.2S10.3,163.1,20.8,296.2C31.3,429.3,142.4,532,275.9,532
	c28.6,0.1,55-15.2,69.2-40h37.6c19.4,33.6,60.2,48.5,96.7,35.2s58.2-50.9,51.4-89.1C524,399.8,490.7,372,451.9,372z M419.9,83.8
	c38,28.4,66.6,67.4,82.3,112.2H355.9c-8.8,0-16-7.2-16-16c0-8.8,7.2-16,16-16h64c13.3,0,24-10.7,24-24s-10.7-24-24-24h-32
	c-8.8,0-16-7.2-16-16s7.2-16,16-16h32V83.8z M83.9,420c-64.1-85.3-64-202.7,0.2-288h152.8c12.7,0,23,10.3,23,23v1
	c0,13.3-10.7,24-24,24h-88c-17.7,0-32,14.3-32,32s14.3,32,32,32h32c17.7,0,32,14.3,32,32s-14.3,32-32,32h-80c-17.7,0-32,14.3-32,32
	c0,17.7,14.3,32,32,32h40c13.3,0,24,10.7,24,24s-10.7,24-24,24H83.9z M100.5,439.7c-1.1-1.2-2.2-2.5-3.3-3.7h42.8
	c22.1,0,40-17.9,40-40c0-22.1-17.9-40-40-40h-40c-8.8,0-16-7.2-16-16c0-8.8,7.2-16,16-16h80c26.5,0,48-21.5,48-48
	c0-26.5-21.5-48-48-48h-32c-8.8,0-16-7.2-16-16c0-8.8,7.2-16,16-16h88c22.1,0,40-17.9,40-40v-1c0-21.5-17.5-39-39-39H97.2
	c75.7-84.6,200.3-104.7,298.7-48h-8c-17.7,0-32,14.3-32,32s14.3,32,32,32h32c4.4,0,8,3.6,8,8s-3.6,8-8,8h-64c-17.7,0-32,14.3-32,32
	s14.3,32,32,32h151.3c0.7,2.5,1.4,5,2,7.6c2.8,11.5,0.1,23.7-7.4,32.9c-7.6,9.8-19.4,15.5-31.8,15.4H295.9c-19.9,0-36,16.1-36,36
	s16.1,36,36,36h24c11,0,20,9,20,20v12h-64c-32.6,0-61.9,19.7-74.1,49.9c-12.2,30.2-4.9,64.8,18.5,87.4
	C174.4,498.4,132.7,474.2,100.5,439.7L100.5,439.7z M451.9,516c-24.3,0.1-46.5-13.7-57.3-35.6l-2.2-4.4h-57l-2.2,4.4
	c-14,28.3-46.6,42.1-76.7,32.6c-30.1-9.6-48.7-39.6-43.9-70.8c4.9-31.2,31.7-54.2,63.3-54.2h176c35.3,0,64,28.7,64,64
	S487.3,516,451.9,516z"/>
</svg>
