<?xml version="1.0" encoding="utf-8"?>
<!-- Generator: Adobe Illustrator 24.0.1, SVG Export Plug-In . SVG Version: 6.00 Build 0)  -->
<svg version="1.1" xmlns="http://www.w3.org/2000/svg" xmlns:xlink="http://www.w3.org/1999/xlink" x="0px" y="0px"
	 viewBox="0 0 466 465" style="enable-background:new 0 0 466 465;" xml:space="preserve">
<style type="text/css">
	.st0{fill:#FFFFFF;}
</style>
<g id="Слой_1">
	<path d="M232.7,4C106.7,4,4.2,106.5,4.2,232.6s102.5,228.6,228.6,228.6s228.6-102.5,228.6-228.6S358.8,4,232.7,4z M387.7,374.6
		l-19.9-19.9c-3.6-3.6-9.4-3.6-12.9,0s-3.6,9.4,0,12.9l19.9,19.9c-35.3,32.4-81.8,52.9-132.9,55.1v-28.2c0-5.1-4.1-9.1-9.1-9.1
		c-5,0-9.1,4.1-9.1,9.1v28.2c-51.1-2.2-97.5-22.7-132.9-55.1l19.9-19.9c3.6-3.6,3.6-9.4,0-12.9c-3.6-3.6-9.4-3.6-12.9,0l-19.9,19.9
		c-32.4-35.3-52.9-81.8-55.1-132.9h28.3c5,0,9.1-4.1,9.1-9.1c0-5-4.1-9.1-9.1-9.1H22.7c2.2-51.1,22.7-97.5,55.1-132.9l19.9,19.9
		c1.8,1.8,4.1,2.7,6.5,2.7c2.3,0,4.7-0.9,6.5-2.7c3.6-3.6,3.6-9.4,0-12.9L90.7,77.6c35.3-32.4,81.8-52.9,132.9-55.1v28.3
		c0,5,4.1,9.1,9.1,9.1c5.1,0,9.1-4.1,9.1-9.1V22.5c51.1,2.2,97.5,22.7,132.9,55.1l-19.9,19.9c-3.6,3.6-3.6,9.4,0,12.9
		c1.8,1.8,4.1,2.7,6.5,2.7s4.7-0.9,6.5-2.7l19.9-19.9c32.4,35.3,52.9,81.8,55.1,132.9h-28.2c-5.1,0-9.1,4.1-9.1,9.1
		c0,5.1,4.1,9.1,9.1,9.1h28.2C440.6,292.8,420.1,339.2,387.7,374.6z"/>
	<path d="M241.8,202.1V81.4c0-5.1-4.1-9.1-9.1-9.1c-5,0-9.1,4.1-9.1,9.1v120.7c-13.2,4-22.8,16.1-22.8,30.5c0,5.5,1.5,10.5,3.9,15.1
		L144,308.4c-3.6,3.6-3.6,9.4,0,12.9c1.8,1.8,4.1,2.7,6.5,2.7c2.3,0,4.7-0.9,6.5-2.7l60.6-60.7c4.5,2.5,9.6,4,15.2,4
		c17.6,0,32-14.4,32-32C264.7,218.1,255,206,241.8,202.1z M232.7,246.3c-7.6,0-13.7-6.2-13.7-13.7s6.2-13.7,13.7-13.7
		s13.7,6.2,13.7,13.7S240.3,246.3,232.7,246.3z"/>
</g>
<g id="Слой_2">
	<circle class="st0" cx="382.4" cy="362" r="56"/>
	<g>
		<g>
			<path d="M383.6,296.3c-36.2,0-65.7,29.5-65.7,65.7s29.5,65.7,65.7,65.7s65.7-29.5,65.7-65.7S419.8,296.3,383.6,296.3z
				 M383.6,417.6c-30.6,0-55.5-24.9-55.5-55.5s24.9-55.5,55.5-55.5c30.6,0,55.5,24.9,55.5,55.5S414.2,417.6,383.6,417.6z"/>
		</g>
	</g>
	<g>
		<g>
			<path d="M413.8,339.1c-2.1-1.9-5.3-1.7-7.2,0.3l-31.1,34.2l-15-15.3c-2-2-5.2-2-7.2-0.1c-2,2-2,5.2-0.1,7.2l18.8,19.1
				c1,1,2.3,1.5,3.6,1.5c0,0,0.1,0,0.1,0c1.4,0,2.7-0.6,3.7-1.7l34.7-38.2C416,344.3,415.8,341,413.8,339.1z"/>
		</g>
	</g>
</g>
</svg>
