<svg xmlns="http://www.w3.org/2000/svg" width="30" height="30" viewBox="0 0 30 30">
    <g fill="none" fill-rule="evenodd" stroke="#706F6F" stroke-linecap="round" stroke-linejoin="round" stroke-width="2">
        <path d="M26.325 10c-2.288 3.226-6.565 5.396-11.464 5.396-4.898 0-9.175-2.17-11.464-5.396M14.861 15.396v3.896M5.118 11.902L2 14.253M9.337 14.41l-1.882 3.295M24.605 11.902l3.117 2.351M20.385 14.41l1.883 3.295"/>
    </g>
</svg>
